Group project 4
…
stringency=Stringency_index %>% filter((Date!="2020-01-01")|(Date!="2020-01-02"))%>%
  group_by(Code) %>%summarise(Country=unique(Entity),median_stringency=median(stringency_index)) %>%
  filter(!is.na(median_stringency)) %>% select(Country,median_stringency)

stringency

## # A tibble: 184 x 2
##    Country              median_stringency
##    <chr>                            <dbl>
##  1 Aruba                             46.3
##  2 Afghanistan                       21.3
##  3 Angola                            71.3
##  4 Albania                           60.2
##  5 Andorra                           50  
##  6 United Arab Emirates              49.1
##  7 Argentina                         82.9
##  8 Australia                         67.1
##  9 Austria                           53.7
## 10 Azerbaijan                        77.8
## # ... with 174 more rows
…
